﻿<?xml version="1.0" encoding="UTF-8"?>
<TestRun id="1fa3bb0e-e1d3-45b4-bb1d-31e3ff955bd2" name="brand_000@BRANDONS-PC 2012-11-08 01:33:14" runUser="BRANDONS-PC\brand_000" xmlns="http://microsoft.com/schemas/VisualStudio/TeamTest/2010">
  <TestSettings name="Local" id="970638e7-7c7d-411d-a67d-ef0348efcf4d">
    <Description>These are default test settings for a local test run.</Description>
    <Deployment enabled="false" runDeploymentRoot="brand_000_BRANDONS-PC 2012-11-08 01_33_14">
      <DeploymentItem filename="C:\Users\brand_000\Documents\Visual Studio 2010\Projects\NETBrandonMartel\ClassLibrary1\bin\Debug\BusinessTier.dll" />
      <DeploymentItem filename="C:\Users\brand_000\Documents\Visual Studio 2010\Projects\NETBrandonMartel\NETBrandonMartel\bin\Debug\NETBrandonMartel.exe" />
    </Deployment>
    <Execution>
      <TestTypeSpecific />
      <AgentRule name="Execution Agents">
      </AgentRule>
    </Execution>
  </TestSettings>
  <Times creation="2012-11-08T01:33:14.2339355-08:00" queuing="2012-11-08T01:33:14.2539611-08:00" start="2012-11-08T01:33:14.2569646-08:00" finish="2012-11-08T01:33:17.0559480-08:00" />
  <ResultSummary outcome="Warning">
    <Counters total="1" executed="1" passed="1" error="0" failed="0" timeout="0" aborted="0" inconclusive="0" passedButRunAborted="0" notRunnable="0" notExecuted="0" disconnected="0" warning="0" completed="0" inProgress="0" pending="0" />
    <RunInfos>
      <RunInfo computerName="BRANDONS-PC" outcome="Warning" timestamp="2012-11-08T01:33:14.2539611-08:00">
        <Text>Deployment is currently disabled. The deployment item 'NETBrandonMartel.exe' on test 'BrandonMartelTest.frmCarWashTest.ResetFragTest' was not deployed.</Text>
      </RunInfo>
    </RunInfos>
  </ResultSummary>
  <TestDefinitions>
    <UnitTest name="ResetFragTest" storage="c:\users\brand_000\documents\visual studio 2010\projects\netbrandonmartel\brandonmarteltest\bin\debug\brandonmarteltest.dll" id="72f1691e-7f2e-7b75-299d-010fa1cd3223">
      <DeploymentItems>
        <DeploymentItem filename="NETBrandonMartel.exe" />
      </DeploymentItems>
      <Execution id="b51d0f98-d406-4f14-8422-ec68ee2bd6c4" />
      <TestMethod codeBase="C:/Users/brand_000/Documents/Visual Studio 2010/Projects/NETBrandonMartel/BrandonMartelTest/bin/Debug/BrandonMartelTest.DLL" adapterTypeName="Microsoft.VisualStudio.TestTools.TestTypes.Unit.UnitTestAdapter, Microsoft.VisualStudio.QualityTools.Tips.UnitTest.Adapter, Version=10.0.0.0, Culture=neutral, PublicKeyToken=b03f5f7f11d50a3a" className="BrandonMartelTest.frmCarWashTest, BrandonMartelTest, Version=1.0.0.0, Culture=neutral, PublicKeyToken=null" name="ResetFragTest" />
    </UnitTest>
  </TestDefinitions>
  <TestLists>
    <TestList name="Results Not in a List" id="8c84fa94-04c1-424b-9868-57a2d4851a1d" />
    <TestList name="All Loaded Results" id="19431567-8539-422a-85d7-44ee4e166bda" />
  </TestLists>
  <TestEntries>
    <TestEntry testId="72f1691e-7f2e-7b75-299d-010fa1cd3223" executionId="b51d0f98-d406-4f14-8422-ec68ee2bd6c4" testListId="8c84fa94-04c1-424b-9868-57a2d4851a1d" />
  </TestEntries>
  <Results>
    <UnitTestResult executionId="b51d0f98-d406-4f14-8422-ec68ee2bd6c4" testId="72f1691e-7f2e-7b75-299d-010fa1cd3223" testName="ResetFragTest" computerName="BRANDONS-PC" duration="00:00:02.6749059" startTime="2012-11-08T01:33:14.2579659-08:00" endTime="2012-11-08T01:33:17.0469370-08:00" testType="13cdc9d9-ddb5-4fa4-a97d-d965ccfc6d4b" outcome="Passed" testListId="8c84fa94-04c1-424b-9868-57a2d4851a1d" relativeResultsDirectory="b51d0f98-d406-4f14-8422-ec68ee2bd6c4">
    </UnitTestResult>
  </Results>
</TestRun>