﻿<?xml version="1.0" encoding="UTF-8"?>
<TestRun id="3b05069f-1c07-41a2-acb8-99fc6b0fea1a" name="brand_000@BRANDONS-PC 2012-11-08 01:46:22" runUser="BRANDONS-PC\brand_000" xmlns="http://microsoft.com/schemas/VisualStudio/TeamTest/2010">
  <TestSettings name="Local" id="970638e7-7c7d-411d-a67d-ef0348efcf4d">
    <Description>These are default test settings for a local test run.</Description>
    <Deployment enabled="false" runDeploymentRoot="brand_000_BRANDONS-PC 2012-11-08 01_46_22">
      <DeploymentItem filename="C:\Users\brand_000\Documents\Visual Studio 2010\Projects\NETBrandonMartel\ClassLibrary1\bin\Debug\BusinessTier.dll" />
      <DeploymentItem filename="C:\Users\brand_000\Documents\Visual Studio 2010\Projects\NETBrandonMartel\NETBrandonMartel\bin\Debug\NETBrandonMartel.exe" />
    </Deployment>
    <Execution>
      <TestTypeSpecific />
      <AgentRule name="Execution Agents">
      </AgentRule>
    </Execution>
  </TestSettings>
  <Times creation="2012-11-08T01:46:22.3491389-08:00" queuing="2012-11-08T01:46:22.3730233-08:00" start="2012-11-08T01:46:22.3770279-08:00" finish="2012-11-08T01:46:22.6587486-08:00" />
  <ResultSummary outcome="Failed">
    <Counters total="1" executed="1" error="0" failed="1" timeout="0" aborted="0" inconclusive="0" passedButRunAborted="0" notRunnable="0" notExecuted="0" disconnected="0" warning="0" passed="0" completed="0" inProgress="0" pending="0" />
    <RunInfos>
      <RunInfo computerName="BRANDONS-PC" outcome="Warning" timestamp="2012-11-08T01:46:22.3730233-08:00">
        <Text>Deployment is currently disabled. The deployment item 'NETBrandonMartel.exe' on test 'BrandonMartelTest.frmCarWashTest.GetFragIndexTest' was not deployed.</Text>
      </RunInfo>
    </RunInfos>
  </ResultSummary>
  <TestDefinitions>
    <UnitTest name="GetFragIndexTest" storage="c:\users\brand_000\documents\visual studio 2010\projects\netbrandonmartel\brandonmarteltest\bin\debug\brandonmarteltest.dll" id="b8736fac-c492-4e2d-e5b7-c7ff5949e051">
      <DeploymentItems>
        <DeploymentItem filename="NETBrandonMartel.exe" />
      </DeploymentItems>
      <Execution id="ff604a1e-2b04-4701-84fc-eb3ed2680256" />
      <TestMethod codeBase="C:/Users/brand_000/Documents/Visual Studio 2010/Projects/NETBrandonMartel/BrandonMartelTest/bin/Debug/BrandonMartelTest.DLL" adapterTypeName="Microsoft.VisualStudio.TestTools.TestTypes.Unit.UnitTestAdapter, Microsoft.VisualStudio.QualityTools.Tips.UnitTest.Adapter, Version=10.0.0.0, Culture=neutral, PublicKeyToken=b03f5f7f11d50a3a" className="BrandonMartelTest.frmCarWashTest, BrandonMartelTest, Version=1.0.0.0, Culture=neutral, PublicKeyToken=null" name="GetFragIndexTest" />
    </UnitTest>
  </TestDefinitions>
  <TestLists>
    <TestList name="Results Not in a List" id="8c84fa94-04c1-424b-9868-57a2d4851a1d" />
    <TestList name="All Loaded Results" id="19431567-8539-422a-85d7-44ee4e166bda" />
  </TestLists>
  <TestEntries>
    <TestEntry testId="b8736fac-c492-4e2d-e5b7-c7ff5949e051" executionId="ff604a1e-2b04-4701-84fc-eb3ed2680256" testListId="8c84fa94-04c1-424b-9868-57a2d4851a1d" />
  </TestEntries>
  <Results>
    <UnitTestResult executionId="ff604a1e-2b04-4701-84fc-eb3ed2680256" testId="b8736fac-c492-4e2d-e5b7-c7ff5949e051" testName="GetFragIndexTest" computerName="BRANDONS-PC" duration="00:00:00.1566141" startTime="2012-11-08T01:46:22.3780295-08:00" endTime="2012-11-08T01:46:22.6487357-08:00" testType="13cdc9d9-ddb5-4fa4-a97d-d965ccfc6d4b" outcome="Failed" testListId="8c84fa94-04c1-424b-9868-57a2d4851a1d" relativeResultsDirectory="ff604a1e-2b04-4701-84fc-eb3ed2680256">
      <Output>
        <ErrorInfo>
          <Message>Assert.AreEqual failed. Expected:&lt;2&gt;. Actual:&lt;0&gt;. </Message>
          <StackTrace>   at BrandonMartelTest.frmCarWashTest.GetFragIndexTest() in C:\Users\brand_000\Documents\Visual Studio 2010\Projects\NETBrandonMartel\BrandonMartelTest\frmCarWashTest.vb:line 216
</StackTrace>
        </ErrorInfo>
      </Output>
    </UnitTestResult>
  </Results>
</TestRun>